Week 3
…
## $node
## <pointer: 0x000002aeba1f84d0>
## 
## $doc
## <pointer: 0x000002ae9c9ff180>

#trying to get a table from the website
soc_staff <- soc_staff %>%
    rvest::html_elements("body") %>%
    rvest::html_table()  
soc_staff

## [[1]]
## # A tibble: 51 × 2
##    X1                               X2                                                              
##    <chr>                            <chr>                                                           
##  1 Staff:                           Expertise:                                                      
##  2 Batenburg, prof. dr. R. (Ronald) Healthcare, labour market and healthcare professions and traini…
##  3 Begall, dr. K.H. (Katia)         Family, life course, labour market participation, division of h…
##  4 Bekhuis, dr. H. (Hidde)          Welfare state, nationalism and sports                           
##  5 Berg, dr. L. van den (Lonneke)   Family, life course and transition to adulthood                 
##  6 Blommaert, dr. L. (Lieselotte)   Discrimination and inequality on the labour market              
##  7 Eisinga, prof. dr. R.N. (Rob)    Methods of research and statistics                              
##  8 Gesthuizen, dr. M.J.W. (Maurice) Poverty en social cohesion                                      
##  9 Geurts, dr. P.G. (Nella)         Integration and migration                                       
## 10 Glas, dr. S. (Saskia)            Islam, gender attitudes and sexuality                           
## # ℹ 41 more rows
…
fodd <- function(x) x%%2 != 0
feven <- function(x) x%%2 == 0

nstaf <- length(soc_staff)
nstaf

## [1] 1

 # Do you understand why we need the nstaf? What it does?
soc_names <- soc_staff[fodd(1:nstaf)]  # in the 1 until 94st number, get the odd elements
head(soc_names)

## [[1]]
## # A tibble: 51 × 2
##    X1                               X2                                                              
##    <chr>                            <chr>                                                           
##  1 Staff:                           Expertise:                                                      
##  2 Batenburg, prof. dr. R. (Ronald) Healthcare, labour market and healthcare professions and traini…
##  3 Begall, dr. K.H. (Katia)         Family, life course, labour market participation, division of h…
##  4 Bekhuis, dr. H. (Hidde)          Welfare state, nationalism and sports                           
##  5 Berg, dr. L. van den (Lonneke)   Family, life course and transition to adulthood                 
##  6 Blommaert, dr. L. (Lieselotte)   Discrimination and inequality on the labour market              
##  7 Eisinga, prof. dr. R.N. (Rob)    Methods of research and statistics                              
##  8 Gesthuizen, dr. M.J.W. (Maurice) Poverty en social cohesion                                      
##  9 Geurts, dr. P.G. (Nella)         Integration and migration                                       
## 10 Glas, dr. S. (Saskia)            Islam, gender attitudes and sexuality                           
## # ℹ 41 more rows
…
